Time	RS0	RS0	L1R	L1G	L1B	
0.0	0	0	0	0	0	
0.1	0	0	0	0	0	
0.2	0	0	0	0	0	
0.3	0	0	0	0	0	
0.4	0	0	0	0	0	
0.5	0	0	0	0	0	
0.6	0	0	0	0	0	
0.7	0	0	0	0	0	
0.8	0	0	0	0	0	
0.9	0	0	0	0	0	
1.0	0	0	255	255	255	
1.1	0	0	255	255	255	
1.2	0	0	255	255	255	
1.3	0	0	255	255	255	
1.4	0	0	255	255	255	
1.5	0	0	255	255	255	
1.6	0	0	255	255	255	
1.7	0	0	255	255	255	
1.8	0	0	255	255	255	
1.9	0	0	255	255	255	
2.0	0	0	255	255	245	
2.1	0	0	255	255	245	
2.2	0	0	255	255	245	
2.3	0	0	255	255	245	
2.4	0	0	255	255	245	
2.5	0	0	255	255	245	
2.6	0	0	255	255	245	
2.7	0	0	255	255	245	
2.8	0	0	255	255	245	
2.9	0	0	255	255	245	
3.0	0	0	0	0	0	
3.1	0	0	0	0	0	
3.2	0	0	0	0	0	
3.3	0	0	0	0	0	
3.4	0	0	0	0	0	
3.5	0	0	0	0	0	
3.6	0	0	0	0	0	
3.7	0	0	0	0	0	
3.8	0	0	0	0	0	
3.9	0	0	0	0	0	
4.0	0	0	0	0	0	
4.1	0	0	0	0	0	
4.2	0	0	0	0	0	
4.3	0	0	0	0	0	
4.4	0	0	0	0	0	
4.5	0	0	0	0	0	
4.6	0	0	0	0	0	
4.7	0	0	0	0	0	
4.8	0	0	0	0	0	
4.9	0	0	0	0	0	
5.0	0	0	0	0	0	
5.1	0	0	0	0	0	
5.2	0	0	0	0	0	
5.3	0	0	0	0	0	
5.4	0	0	0	0	0	
5.5	0	0	0	0	0	
5.6	0	0	0	0	0	
5.7	0	0	0	0	0	
5.8	0	0	0	0	0	
5.9	0	0	0	0	0	
6.0	0	0	0	0	0	
6.1	0	0	0	0	0	
6.2	0	0	0	0	0	
6.3	0	0	0	0	0	
6.4	0	0	0	0	0	
6.5	0	0	0	0	0	
6.6	0	0	0	0	0	
6.7	0	0	0	0	0	
6.8	0	0	0	0	0	
6.9	0	0	0	0	0	
7.0	0	0	0	0	0	
7.1	0	0	0	0	0	
7.2	0	0	0	0	0	
7.3	0	0	0	0	0	
7.4	0	0	0	0	0	
7.5	0	0	0	0	0	
7.6	0	0	0	0	0	
7.7	0	0	0	0	0	
7.8	0	0	0	0	0	
7.9	0	0	0	0	0	
8.0	0	0	0	0	0	
8.1	0	0	0	0	0	
8.2	0	0	0	0	0	
8.3	0	0	0	0	0	
8.4	0	0	0	0	0	
8.5	0	0	0	0	0	
8.6	0	0	0	0	0	
8.7	0	0	0	0	0	
8.8	0	0	0	0	0	
8.9	0	0	0	0	0	
9.0	0	0	0	0	0	
9.1	0	0	0	0	0	
9.2	0	0	0	0	0	
9.3	0	0	0	0	0	
9.4	0	0	0	0	0	
9.5	0	0	0	0	0	
9.6	0	0	0	0	0	
9.7	0	0	0	0	0	
9.8	0	0	0	0	0	
9.9	0	0	0	0	0	
10.0	0	0	0	0	0	
10.1	1	1	0	0	0	
10.2	1	1	0	0	0	
10.3	2	2	0	0	0	
10.4	3	3	0	0	0	
10.5	3	3	0	0	0	
10.6	4	4	0	0	0	
10.7	5	5	0	0	0	
10.8	5	5	0	0	0	
10.9	6	6	0	0	0	
11.0	7	7	0	0	0	
11.1	7	7	0	0	0	
11.2	8	8	0	0	0	
11.3	9	9	0	0	0	
11.4	9	9	0	0	0	
11.5	10	10	0	0	0	
11.6	11	11	0	0	0	
11.7	11	11	0	0	0	
11.8	12	12	0	0	0	
11.9	13	13	0	0	0	
12.0	13	13	0	0	0	
12.1	14	14	0	0	0	
12.2	15	15	0	0	0	
12.3	15	15	0	0	0	
12.4	16	16	0	0	0	
12.5	17	17	0	0	0	
12.6	17	17	0	0	0	
12.7	18	18	0	0	0	
12.8	19	19	0	0	0	
12.9	19	19	0	0	0	
13.0	20	20	0	0	0	
13.1	21	21	0	0	0	
13.2	21	21	0	0	0	
13.3	22	22	0	0	0	
13.4	23	23	0	0	0	
13.5	23	23	0	0	0	
13.6	24	24	0	0	0	
13.7	25	25	0	0	0	
13.8	25	25	0	0	0	
13.9	26	26	0	0	0	
14.0	27	27	0	0	0	
14.1	27	27	0	0	0	
14.2	28	28	0	0	0	
14.3	29	29	0	0	0	
14.4	29	29	0	0	0	
14.5	30	30	0	0	0	
14.6	31	31	0	0	0	
14.7	31	31	0	0	0	
14.8	32	32	0	0	0	
14.9	33	33	0	0	0	
15.0	33	33	0	0	0	
15.1	33	33	0	0	0	
15.2	33	33	0	0	0	
15.3	33	33	0	0	0	
15.4	33	33	0	0	0	
15.5	33	33	0	0	0	
15.6	33	33	0	0	0	
15.7	33	33	0	0	0	
15.8	33	33	0	0	0	
15.9	33	33	0	0	0	
16.0	33	33	245	255	245	
16.1	33	33	245	255	245	
16.2	33	33	245	255	245	
16.3	33	33	245	255	245	
16.4	33	33	245	255	245	
16.5	33	33	245	255	245	
16.6	33	33	245	255	245	
16.7	33	33	245	255	245	
16.8	33	33	245	255	245	
16.9	33	33	245	255	245	
17.0	33	33	245	255	255	
